{
    "$schema": "https://json-schema.org/draft/2019-09/schema",
    "$id": "http://example.com/example.json",
    "type":"array",
    "items":[{
        "type": "object",
        "properties":{
            "id":{
                "type":"string"
            },
            "createdAt":{
                "type":"string"
            },
            "updatedAt":{
                "type":"string"
            },
            "text":{
                "type":"string"
            },
            "user":{
                "type":"object",
                "properties":{
                    "id":{
                        "type":"string"
                    },
                    "username":{
                        "type":["string","null"]
                    },
                    "email":{
                        "type":"string"
                    },
                    "role":{
                        "type":"string",
                        "enum":["AUTHOR","USER"]
                    }
                }, 
                "required":[
                    "id",
                    "username",
                    "email",
                    "role"
                ]
            },
            "courseId":{
                "type":"string"
            },
            "sourceId":{
                "type":"string"
            }
        },
        "required":[
            "id",
            "createdAt",
            "updatedAt",
            "text",
            "user",
            "courseId",
            "sourceId"
        ]
    }]
}