{
    "$schema": "https://json-schema.org/draft/2019-09/schema",
    "$id": "http://example.com/example.json",
    "type": "object",
    "properties":{
        "id":{
            "type":"string"
        },
        "name":{
            "type":"string"
        },
        "text":{
            "type":"string"
        },
        "image":{
            "type":"string"
        },
        "authorId":{
            "type":"string"
        },
        "authorName":{
            "type":"string"
        }
    },
    "required":[
        "id",
        "name",
        "text",
        "image",
        "authorId",
        "authorName"
    ]
}